Type:Ground
{1,0}|Alke
{2,0}|Pleyanie
{3,0}|Calem
{4,2}|Exploradora
{5,6}|Exploradora
{4,6}|Guerrero
{3,6}|Guerrero
{1,5}|Guerrero
{2,5}|Bandida
{0,1}|Rock
{1,6}|Rock
{5,6}|Rock
{4,5}|Rock
{0,0}|Rock
{1,5}|Rock
{3,1}|Rock
{1,1}|Rock
{0,7}|Rock
{0,1}|Rock
{5,7}|Rock
{2,6}|Rock
{5,7}|Rock
Victoria:¡Derrota a todos los enemigos!
Derrota:¡Todos los aliados han caído!