﻿Type:Ground
{0,0}|Pleyanie
{1,0}|Calem
{4,0}|Tree2
{5,0}|Tree2
{0,1}|Zac
{1,1}|Alke
{2,2}|Tree2
{5,2}|Sombra
{2,3}|Tree2
{3,3}|Tree2
{5,3}|Tree2
{1,4}|Tree2
{2,4}|Tree2
{3,4}|Tree2
{5,4}|Tree2
{1,5}|Tree2
{2,5}|Tree2
{0,6}|Bandida
{1,6}|Tree2
{5,6}|Exploradora
{0,7}|Tree2
{1,7}|Tree2
{2,7}|Sombra
{3,7}|Bandida
{4,7}|Tree2
{5,7}|Tree2
Victoria:¡Derrota a todos los enemigos!
Derrota:¡Zac debe sobrevivir!