﻿Type:Ground
{0,0}|Alke
{1,0}|Pleyanie
{5,0}|Rock
{0,1}|Zac
{1,1}|Karia
{0,2}|Calem
{3,2}|Rock
{0,3}|Rock
{1,3}|Rock
{3,3}|Rock
{0,4}|Rock
{1,4}|Rock
{2,4}|Rock
{3,4}|Rock
{0,5}|Rock
{1,5}|Rock
{2,5}|Rock
{5,5}|Rock
{0,6}|Rock
{1,6}|Rock
{2,6}|Rock
{0,7}|Rock
{1,7}|Rock
{2,7}|Espiritista
{3,7}|Espiritista
{4,7}|Guerrero
{5,7}|Bandida
Victoria:¡Derrota a todos los enemigos!
Derrota:¡Karia debe sobrevivir!