%YAML 1.1
%TAG !u! tag:unity3d.com,2011:
--- !u!74 &7400000
AnimationClip:
  m_ObjectHideFlags: 0
  m_CorrespondingSourceObject: {fileID: 0}
  m_PrefabInstance: {fileID: 0}
  m_PrefabAsset: {fileID: 0}
  m_Name: CalemIdle
  serializedVersion: 6
  m_Legacy: 0
  m_Compressed: 0
  m_UseHighQualityCurve: 1
  m_RotationCurves: []
  m_CompressedRotationCurves: []
  m_EulerCurves: []
  m_PositionCurves: []
  m_ScaleCurves: []
  m_FloatCurves: []
  m_PPtrCurves:
  - curve:
    - time: 0
      value: {fileID: 21300000, guid: eb32f843d75c59c4994be6628eb3eae6, type: 3}
    - time: 0.083333336
      value: {fileID: 21300000, guid: 262ade7d002b3fd49b7bc10d06d3a447, type: 3}
    - time: 0.16666667
      value: {fileID: 21300000, guid: c5c50b2eef21a8449a5ce154a1335514, type: 3}
    - time: 0.25
      value: {fileID: 21300000, guid: 62c73e46975211e4bbcb1ce3db9bc45c, type: 3}
    - time: 0.33333334
      value: {fileID: 21300000, guid: 887406aff1ec7494089ab47140afac88, type: 3}
    - time: 0.41666666
      value: {fileID: 21300000, guid: 2808d642df725ed4ab55c1b2e5f74a51, type: 3}
    - time: 0.5
      value: {fileID: 21300000, guid: 8408384ca5d28c64dafd2274a327d08c, type: 3}
    - time: 0.5833333
      value: {fileID: 21300000, guid: b7ff625a95c338347a21a6dc24ece59a, type: 3}
    - time: 0.6666667
      value: {fileID: 21300000, guid: ff17da0be74e21f489d0ea7b5412d3ea, type: 3}
    - time: 0.75
      value: {fileID: 21300000, guid: 17daf648f3b6cef4b8483cfede52967d, type: 3}
    - time: 0.8333333
      value: {fileID: 21300000, guid: 2fa5563f4f32eb94eb757d01873f3b7f, type: 3}
    - time: 0.9166667
      value: {fileID: 21300000, guid: 5c3ed9ede902a3243ae6046e5b5126d3, type: 3}
    - time: 1
      value: {fileID: 21300000, guid: 164081a5943b7e84c84d8e93c9ee6916, type: 3}
    - time: 1.0833334
      value: {fileID: 21300000, guid: 2d414d0dcabb64d4ab1509ffe2c7942d, type: 3}
    attribute: m_Sprite
    path: 
    classID: 212
    script: {fileID: 0}
  m_SampleRate: 12
  m_WrapMode: 0
  m_Bounds:
    m_Center: {x: 0, y: 0, z: 0}
    m_Extent: {x: 0, y: 0, z: 0}
  m_ClipBindingConstant:
    genericBindings:
    - serializedVersion: 2
      path: 0
      attribute: 0
      script: {fileID: 0}
      typeID: 212
      customType: 23
      isPPtrCurve: 1
    pptrCurveMapping:
    - {fileID: 21300000, guid: eb32f843d75c59c4994be6628eb3eae6, type: 3}
    - {fileID: 21300000, guid: 262ade7d002b3fd49b7bc10d06d3a447, type: 3}
    - {fileID: 21300000, guid: c5c50b2eef21a8449a5ce154a1335514, type: 3}
    - {fileID: 21300000, guid: 62c73e46975211e4bbcb1ce3db9bc45c, type: 3}
    - {fileID: 21300000, guid: 887406aff1ec7494089ab47140afac88, type: 3}
    - {fileID: 21300000, guid: 2808d642df725ed4ab55c1b2e5f74a51, type: 3}
    - {fileID: 21300000, guid: 8408384ca5d28c64dafd2274a327d08c, type: 3}
    - {fileID: 21300000, guid: b7ff625a95c338347a21a6dc24ece59a, type: 3}
    - {fileID: 21300000, guid: ff17da0be74e21f489d0ea7b5412d3ea, type: 3}
    - {fileID: 21300000, guid: 17daf648f3b6cef4b8483cfede52967d, type: 3}
    - {fileID: 21300000, guid: 2fa5563f4f32eb94eb757d01873f3b7f, type: 3}
    - {fileID: 21300000, guid: 5c3ed9ede902a3243ae6046e5b5126d3, type: 3}
    - {fileID: 21300000, guid: 164081a5943b7e84c84d8e93c9ee6916, type: 3}
    - {fileID: 21300000, guid: 2d414d0dcabb64d4ab1509ffe2c7942d, type: 3}
  m_AnimationClipSettings:
    serializedVersion: 2
    m_AdditiveReferencePoseClip: {fileID: 0}
    m_AdditiveReferencePoseTime: 0
    m_StartTime: 0
    m_StopTime: 1.1666667
    m_OrientationOffsetY: 0
    m_Level: 0
    m_CycleOffset: 0
    m_HasAdditiveReferencePose: 0
    m_LoopTime: 1
    m_LoopBlend: 0
    m_LoopBlendOrientation: 0
    m_LoopBlendPositionY: 0
    m_LoopBlendPositionXZ: 0
    m_KeepOriginalOrientation: 0
    m_KeepOriginalPositionY: 1
    m_KeepOriginalPositionXZ: 0
    m_HeightFromFeet: 0
    m_Mirror: 0
  m_EditorCurves: []
  m_EulerEditorCurves: []
  m_HasGenericRootTransform: 0
  m_HasMotionFloatCurves: 0
  m_Events: []
