%YAML 1.1
%TAG !u! tag:unity3d.com,2011:
--- !u!74 &7400000
AnimationClip:
  m_ObjectHideFlags: 0
  m_CorrespondingSourceObject: {fileID: 0}
  m_PrefabInstance: {fileID: 0}
  m_PrefabAsset: {fileID: 0}
  m_Name: EspiritistaAttack
  serializedVersion: 6
  m_Legacy: 0
  m_Compressed: 0
  m_UseHighQualityCurve: 1
  m_RotationCurves: []
  m_CompressedRotationCurves: []
  m_EulerCurves: []
  m_PositionCurves: []
  m_ScaleCurves: []
  m_FloatCurves: []
  m_PPtrCurves:
  - curve:
    - time: 0
      value: {fileID: 21300000, guid: e348c41f405e4574fbcb7bce35004052, type: 3}
    - time: 0.083333336
      value: {fileID: 21300000, guid: 4fd2e3a672f94d94f849b18e063b7e7b, type: 3}
    - time: 0.16666667
      value: {fileID: 21300000, guid: 72beb968f58393b4493a5d6e9882cd5c, type: 3}
    - time: 0.25
      value: {fileID: 21300000, guid: d44d7e06a9a13434c8920aeff33cd1e9, type: 3}
    - time: 0.33333334
      value: {fileID: 21300000, guid: af159cd5bd7e1e04db2ea0aeb41e5ee2, type: 3}
    - time: 0.41666666
      value: {fileID: 21300000, guid: 567921e08ffbcc44ca0115fd3caed86c, type: 3}
    - time: 0.5
      value: {fileID: 21300000, guid: 7e7946f77c03aed40a4574b4854d8e60, type: 3}
    - time: 0.5833333
      value: {fileID: 21300000, guid: 1bd28125f5cff9c4dbdb61c5d6094cd9, type: 3}
    - time: 0.6666667
      value: {fileID: 21300000, guid: cd9d98d699d8fb740b1816870c33e93c, type: 3}
    - time: 0.75
      value: {fileID: 21300000, guid: e6f0b6af633246f47a062b21dd1a29d8, type: 3}
    - time: 0.8333333
      value: {fileID: 21300000, guid: 77d1fe7a1042b804daaf7ee99b8622a2, type: 3}
    - time: 0.9166667
      value: {fileID: 21300000, guid: a9c466ea7eda9d043a944043469d0e0b, type: 3}
    - time: 1
      value: {fileID: 21300000, guid: 132b8cbc5dfe8c04db0c3dbc9340bea8, type: 3}
    - time: 1.0833334
      value: {fileID: 21300000, guid: d2fe76281219f5e4198491e337cf707c, type: 3}
    - time: 1.1666666
      value: {fileID: 21300000, guid: 82fe2246292b2fa45a7560e1cfd6c366, type: 3}
    attribute: m_Sprite
    path: 
    classID: 212
    script: {fileID: 0}
  m_SampleRate: 12
  m_WrapMode: 0
  m_Bounds:
    m_Center: {x: 0, y: 0, z: 0}
    m_Extent: {x: 0, y: 0, z: 0}
  m_ClipBindingConstant:
    genericBindings:
    - serializedVersion: 2
      path: 0
      attribute: 0
      script: {fileID: 0}
      typeID: 212
      customType: 23
      isPPtrCurve: 1
    pptrCurveMapping:
    - {fileID: 21300000, guid: e348c41f405e4574fbcb7bce35004052, type: 3}
    - {fileID: 21300000, guid: 4fd2e3a672f94d94f849b18e063b7e7b, type: 3}
    - {fileID: 21300000, guid: 72beb968f58393b4493a5d6e9882cd5c, type: 3}
    - {fileID: 21300000, guid: d44d7e06a9a13434c8920aeff33cd1e9, type: 3}
    - {fileID: 21300000, guid: af159cd5bd7e1e04db2ea0aeb41e5ee2, type: 3}
    - {fileID: 21300000, guid: 567921e08ffbcc44ca0115fd3caed86c, type: 3}
    - {fileID: 21300000, guid: 7e7946f77c03aed40a4574b4854d8e60, type: 3}
    - {fileID: 21300000, guid: 1bd28125f5cff9c4dbdb61c5d6094cd9, type: 3}
    - {fileID: 21300000, guid: cd9d98d699d8fb740b1816870c33e93c, type: 3}
    - {fileID: 21300000, guid: e6f0b6af633246f47a062b21dd1a29d8, type: 3}
    - {fileID: 21300000, guid: 77d1fe7a1042b804daaf7ee99b8622a2, type: 3}
    - {fileID: 21300000, guid: a9c466ea7eda9d043a944043469d0e0b, type: 3}
    - {fileID: 21300000, guid: 132b8cbc5dfe8c04db0c3dbc9340bea8, type: 3}
    - {fileID: 21300000, guid: d2fe76281219f5e4198491e337cf707c, type: 3}
    - {fileID: 21300000, guid: 82fe2246292b2fa45a7560e1cfd6c366, type: 3}
  m_AnimationClipSettings:
    serializedVersion: 2
    m_AdditiveReferencePoseClip: {fileID: 0}
    m_AdditiveReferencePoseTime: 0
    m_StartTime: 0
    m_StopTime: 1.25
    m_OrientationOffsetY: 0
    m_Level: 0
    m_CycleOffset: 0
    m_HasAdditiveReferencePose: 0
    m_LoopTime: 1
    m_LoopBlend: 0
    m_LoopBlendOrientation: 0
    m_LoopBlendPositionY: 0
    m_LoopBlendPositionXZ: 0
    m_KeepOriginalOrientation: 0
    m_KeepOriginalPositionY: 1
    m_KeepOriginalPositionXZ: 0
    m_HeightFromFeet: 0
    m_Mirror: 0
  m_EditorCurves: []
  m_EulerEditorCurves: []
  m_HasGenericRootTransform: 0
  m_HasMotionFloatCurves: 0
  m_Events: []
