%YAML 1.1
%TAG !u! tag:unity3d.com,2011:
--- !u!74 &7400000
AnimationClip:
  m_ObjectHideFlags: 0
  m_CorrespondingSourceObject: {fileID: 0}
  m_PrefabInstance: {fileID: 0}
  m_PrefabAsset: {fileID: 0}
  m_Name: Espiritista
  serializedVersion: 6
  m_Legacy: 0
  m_Compressed: 0
  m_UseHighQualityCurve: 1
  m_RotationCurves: []
  m_CompressedRotationCurves: []
  m_EulerCurves: []
  m_PositionCurves: []
  m_ScaleCurves: []
  m_FloatCurves: []
  m_PPtrCurves:
  - curve:
    - time: 0
      value: {fileID: 21300000, guid: cd3742b59739a1741bcafe0b66ba2cd0, type: 3}
    - time: 0.083333336
      value: {fileID: 21300000, guid: f37f5d3e7258137448ba841677ae382a, type: 3}
    - time: 0.16666667
      value: {fileID: 21300000, guid: c74ebe36338cd2e4797284d63835e7bb, type: 3}
    - time: 0.25
      value: {fileID: 21300000, guid: ebe3446f3509f3041ad39d0d8998c13c, type: 3}
    - time: 0.33333334
      value: {fileID: 21300000, guid: 7f57bb13b5f3f6c48a72886c1c270cbd, type: 3}
    - time: 0.41666666
      value: {fileID: 21300000, guid: 15feab4f7445e394882ffaba5f27af82, type: 3}
    - time: 0.5
      value: {fileID: 21300000, guid: e85eeb0025f8d59418566abb3748a354, type: 3}
    - time: 0.5833333
      value: {fileID: 21300000, guid: a7aa192a6f5ca6f4cbaf030a42aa391d, type: 3}
    - time: 0.6666667
      value: {fileID: 21300000, guid: b28111daf842c8c409ff3218fb368e65, type: 3}
    - time: 0.75
      value: {fileID: 21300000, guid: 03830648d81ee0b43b7242d0bc4eb7ba, type: 3}
    - time: 0.8333333
      value: {fileID: 21300000, guid: c86ff82a59a2832498709a3e1e24db58, type: 3}
    - time: 0.9166667
      value: {fileID: 21300000, guid: 46982e61836964c4f9ee9ac36728f05d, type: 3}
    - time: 1
      value: {fileID: 21300000, guid: dc1f8c5d29d2692499da1e3349163f2d, type: 3}
    - time: 1.0833334
      value: {fileID: 21300000, guid: 9d61a664bf7c55543ad2ed71b3dfd448, type: 3}
    - time: 1.1666666
      value: {fileID: 21300000, guid: 6f7f649c39e02b44eb9d1616eddb431d, type: 3}
    - time: 1.25
      value: {fileID: 21300000, guid: 6cdf8c152cfa26446bb89d04d4382f18, type: 3}
    - time: 1.3333334
      value: {fileID: 21300000, guid: 4f68ea0ee98382440954926b0dffe228, type: 3}
    - time: 1.4166666
      value: {fileID: 21300000, guid: d2f2644876d6a374f9ac8cd5b71f4a7b, type: 3}
    - time: 1.5
      value: {fileID: 21300000, guid: d84c46ea253804b4a90ce429cba74f8e, type: 3}
    - time: 1.5833334
      value: {fileID: 21300000, guid: 44296c81a909f2f4ebbc2b95648d78f7, type: 3}
    - time: 1.6666666
      value: {fileID: 21300000, guid: e44b2749a81299549888ff5594788a4d, type: 3}
    attribute: m_Sprite
    path: 
    classID: 212
    script: {fileID: 0}
  m_SampleRate: 12
  m_WrapMode: 0
  m_Bounds:
    m_Center: {x: 0, y: 0, z: 0}
    m_Extent: {x: 0, y: 0, z: 0}
  m_ClipBindingConstant:
    genericBindings:
    - serializedVersion: 2
      path: 0
      attribute: 0
      script: {fileID: 0}
      typeID: 212
      customType: 23
      isPPtrCurve: 1
    pptrCurveMapping:
    - {fileID: 21300000, guid: cd3742b59739a1741bcafe0b66ba2cd0, type: 3}
    - {fileID: 21300000, guid: f37f5d3e7258137448ba841677ae382a, type: 3}
    - {fileID: 21300000, guid: c74ebe36338cd2e4797284d63835e7bb, type: 3}
    - {fileID: 21300000, guid: ebe3446f3509f3041ad39d0d8998c13c, type: 3}
    - {fileID: 21300000, guid: 7f57bb13b5f3f6c48a72886c1c270cbd, type: 3}
    - {fileID: 21300000, guid: 15feab4f7445e394882ffaba5f27af82, type: 3}
    - {fileID: 21300000, guid: e85eeb0025f8d59418566abb3748a354, type: 3}
    - {fileID: 21300000, guid: a7aa192a6f5ca6f4cbaf030a42aa391d, type: 3}
    - {fileID: 21300000, guid: b28111daf842c8c409ff3218fb368e65, type: 3}
    - {fileID: 21300000, guid: 03830648d81ee0b43b7242d0bc4eb7ba, type: 3}
    - {fileID: 21300000, guid: c86ff82a59a2832498709a3e1e24db58, type: 3}
    - {fileID: 21300000, guid: 46982e61836964c4f9ee9ac36728f05d, type: 3}
    - {fileID: 21300000, guid: dc1f8c5d29d2692499da1e3349163f2d, type: 3}
    - {fileID: 21300000, guid: 9d61a664bf7c55543ad2ed71b3dfd448, type: 3}
    - {fileID: 21300000, guid: 6f7f649c39e02b44eb9d1616eddb431d, type: 3}
    - {fileID: 21300000, guid: 6cdf8c152cfa26446bb89d04d4382f18, type: 3}
    - {fileID: 21300000, guid: 4f68ea0ee98382440954926b0dffe228, type: 3}
    - {fileID: 21300000, guid: d2f2644876d6a374f9ac8cd5b71f4a7b, type: 3}
    - {fileID: 21300000, guid: d84c46ea253804b4a90ce429cba74f8e, type: 3}
    - {fileID: 21300000, guid: 44296c81a909f2f4ebbc2b95648d78f7, type: 3}
    - {fileID: 21300000, guid: e44b2749a81299549888ff5594788a4d, type: 3}
  m_AnimationClipSettings:
    serializedVersion: 2
    m_AdditiveReferencePoseClip: {fileID: 0}
    m_AdditiveReferencePoseTime: 0
    m_StartTime: 0
    m_StopTime: 1.75
    m_OrientationOffsetY: 0
    m_Level: 0
    m_CycleOffset: 0
    m_HasAdditiveReferencePose: 0
    m_LoopTime: 1
    m_LoopBlend: 0
    m_LoopBlendOrientation: 0
    m_LoopBlendPositionY: 0
    m_LoopBlendPositionXZ: 0
    m_KeepOriginalOrientation: 0
    m_KeepOriginalPositionY: 1
    m_KeepOriginalPositionXZ: 0
    m_HeightFromFeet: 0
    m_Mirror: 0
  m_EditorCurves: []
  m_EulerEditorCurves: []
  m_HasGenericRootTransform: 0
  m_HasMotionFloatCurves: 0
  m_Events: []
