%YAML 1.1
%TAG !u! tag:unity3d.com,2011:
--- !u!74 &7400000
AnimationClip:
  m_ObjectHideFlags: 0
  m_CorrespondingSourceObject: {fileID: 0}
  m_PrefabInstance: {fileID: 0}
  m_PrefabAsset: {fileID: 0}
  m_Name: ExploradoraAttack
  serializedVersion: 6
  m_Legacy: 0
  m_Compressed: 0
  m_UseHighQualityCurve: 1
  m_RotationCurves: []
  m_CompressedRotationCurves: []
  m_EulerCurves: []
  m_PositionCurves: []
  m_ScaleCurves: []
  m_FloatCurves: []
  m_PPtrCurves:
  - curve:
    - time: 0
      value: {fileID: 21300000, guid: 614062b8aafa1a14c8736c07321f9157, type: 3}
    - time: 0.083333336
      value: {fileID: 21300000, guid: bd380a9e3fdc2474695af09caa137bb0, type: 3}
    - time: 0.16666667
      value: {fileID: 21300000, guid: 6d71a24068b254e439e5599786c24c16, type: 3}
    - time: 0.25
      value: {fileID: 21300000, guid: 5ec77dd0ac025854b8c00a1135e87f83, type: 3}
    - time: 0.33333334
      value: {fileID: 21300000, guid: e0188e228c417b54a9eb1fa107199cf5, type: 3}
    - time: 0.41666666
      value: {fileID: 21300000, guid: 5a57055442590084580d2f045bac40da, type: 3}
    - time: 0.5
      value: {fileID: 21300000, guid: 82bf36869ace8274c983d78ccf2bc28f, type: 3}
    - time: 0.5833333
      value: {fileID: 21300000, guid: d2f878a7fb1097b46906c3da88ce5d70, type: 3}
    - time: 0.6666667
      value: {fileID: 21300000, guid: d2765f3acbfdce24eb5eae363e3fc7f8, type: 3}
    - time: 0.75
      value: {fileID: 21300000, guid: 470bdf0fb681a584a87c2fa8113f606c, type: 3}
    - time: 0.8333333
      value: {fileID: 21300000, guid: 20482ee51919f474b88876fad48c1208, type: 3}
    - time: 0.9166667
      value: {fileID: 21300000, guid: 80103134bda04d0459bb93d17c4a9166, type: 3}
    - time: 1
      value: {fileID: 21300000, guid: 567db9a9f726b7c44af32aee36f0da92, type: 3}
    - time: 1.0833334
      value: {fileID: 21300000, guid: e0e108ceb24eecb42a38768c6f99f76c, type: 3}
    - time: 1.1666666
      value: {fileID: 21300000, guid: 000d75322d16cf74083ecc3d9970d688, type: 3}
    - time: 1.25
      value: {fileID: 21300000, guid: 2306c2f8dda45734caebf4c7862a235d, type: 3}
    - time: 1.3333334
      value: {fileID: 21300000, guid: 1ed442586cf69d24a86fe0cff1c4f7a0, type: 3}
    - time: 1.4166666
      value: {fileID: 21300000, guid: a13bb000ede9daa4d99a82c9c799ef62, type: 3}
    - time: 1.5
      value: {fileID: 21300000, guid: a7bc549bf79a6ff42b434890ca7a029c, type: 3}
    - time: 1.5833334
      value: {fileID: 21300000, guid: f0602f9997e89a84cb2e258876fa6a93, type: 3}
    attribute: m_Sprite
    path: 
    classID: 212
    script: {fileID: 0}
  m_SampleRate: 12
  m_WrapMode: 0
  m_Bounds:
    m_Center: {x: 0, y: 0, z: 0}
    m_Extent: {x: 0, y: 0, z: 0}
  m_ClipBindingConstant:
    genericBindings:
    - serializedVersion: 2
      path: 0
      attribute: 0
      script: {fileID: 0}
      typeID: 212
      customType: 23
      isPPtrCurve: 1
    pptrCurveMapping:
    - {fileID: 21300000, guid: 614062b8aafa1a14c8736c07321f9157, type: 3}
    - {fileID: 21300000, guid: bd380a9e3fdc2474695af09caa137bb0, type: 3}
    - {fileID: 21300000, guid: 6d71a24068b254e439e5599786c24c16, type: 3}
    - {fileID: 21300000, guid: 5ec77dd0ac025854b8c00a1135e87f83, type: 3}
    - {fileID: 21300000, guid: e0188e228c417b54a9eb1fa107199cf5, type: 3}
    - {fileID: 21300000, guid: 5a57055442590084580d2f045bac40da, type: 3}
    - {fileID: 21300000, guid: 82bf36869ace8274c983d78ccf2bc28f, type: 3}
    - {fileID: 21300000, guid: d2f878a7fb1097b46906c3da88ce5d70, type: 3}
    - {fileID: 21300000, guid: d2765f3acbfdce24eb5eae363e3fc7f8, type: 3}
    - {fileID: 21300000, guid: 470bdf0fb681a584a87c2fa8113f606c, type: 3}
    - {fileID: 21300000, guid: 20482ee51919f474b88876fad48c1208, type: 3}
    - {fileID: 21300000, guid: 80103134bda04d0459bb93d17c4a9166, type: 3}
    - {fileID: 21300000, guid: 567db9a9f726b7c44af32aee36f0da92, type: 3}
    - {fileID: 21300000, guid: e0e108ceb24eecb42a38768c6f99f76c, type: 3}
    - {fileID: 21300000, guid: 000d75322d16cf74083ecc3d9970d688, type: 3}
    - {fileID: 21300000, guid: 2306c2f8dda45734caebf4c7862a235d, type: 3}
    - {fileID: 21300000, guid: 1ed442586cf69d24a86fe0cff1c4f7a0, type: 3}
    - {fileID: 21300000, guid: a13bb000ede9daa4d99a82c9c799ef62, type: 3}
    - {fileID: 21300000, guid: a7bc549bf79a6ff42b434890ca7a029c, type: 3}
    - {fileID: 21300000, guid: f0602f9997e89a84cb2e258876fa6a93, type: 3}
  m_AnimationClipSettings:
    serializedVersion: 2
    m_AdditiveReferencePoseClip: {fileID: 0}
    m_AdditiveReferencePoseTime: 0
    m_StartTime: 0
    m_StopTime: 1.6666666
    m_OrientationOffsetY: 0
    m_Level: 0
    m_CycleOffset: 0
    m_HasAdditiveReferencePose: 0
    m_LoopTime: 0
    m_LoopBlend: 0
    m_LoopBlendOrientation: 0
    m_LoopBlendPositionY: 0
    m_LoopBlendPositionXZ: 0
    m_KeepOriginalOrientation: 0
    m_KeepOriginalPositionY: 1
    m_KeepOriginalPositionXZ: 0
    m_HeightFromFeet: 0
    m_Mirror: 0
  m_EditorCurves: []
  m_EulerEditorCurves: []
  m_HasGenericRootTransform: 0
  m_HasMotionFloatCurves: 0
  m_Events: []
