%YAML 1.1
%TAG !u! tag:unity3d.com,2011:
--- !u!74 &7400000
AnimationClip:
  m_ObjectHideFlags: 0
  m_CorrespondingSourceObject: {fileID: 0}
  m_PrefabInstance: {fileID: 0}
  m_PrefabAsset: {fileID: 0}
  m_Name: Guerrero2
  serializedVersion: 6
  m_Legacy: 0
  m_Compressed: 0
  m_UseHighQualityCurve: 1
  m_RotationCurves: []
  m_CompressedRotationCurves: []
  m_EulerCurves: []
  m_PositionCurves: []
  m_ScaleCurves: []
  m_FloatCurves: []
  m_PPtrCurves:
  - curve:
    - time: 0
      value: {fileID: 21300000, guid: b32382519e28fff40832b51800e88600, type: 3}
    - time: 0.083333336
      value: {fileID: 21300000, guid: 3bca53d5e0297b54fbf28763b27d85d9, type: 3}
    - time: 0.16666667
      value: {fileID: 21300000, guid: aaf775fa1821f1247a357cbeeaa68755, type: 3}
    - time: 0.25
      value: {fileID: 21300000, guid: b89d30f4037f9564b80ac469ade58a15, type: 3}
    - time: 0.33333334
      value: {fileID: 21300000, guid: 517d1317ae34d6f44887799cf7fb340c, type: 3}
    - time: 0.41666666
      value: {fileID: 21300000, guid: b247d0aa6876c994294c2b11a0c4dfe0, type: 3}
    - time: 0.5
      value: {fileID: 21300000, guid: 535a878f34fdac54e9dbd9c5fb6006ea, type: 3}
    - time: 0.5833333
      value: {fileID: 21300000, guid: ad528d903a4d4624bb165bd22cb9d5b0, type: 3}
    - time: 0.6666667
      value: {fileID: 21300000, guid: a72fc30d58d5fed4fbe1a585723b4769, type: 3}
    - time: 0.75
      value: {fileID: 21300000, guid: 4fd9bb09cda5abe4aa91d832e28fa9b0, type: 3}
    - time: 0.8333333
      value: {fileID: 21300000, guid: 555b00b4d876ec84aafe1144ba19af64, type: 3}
    attribute: m_Sprite
    path: 
    classID: 212
    script: {fileID: 0}
  m_SampleRate: 12
  m_WrapMode: 0
  m_Bounds:
    m_Center: {x: 0, y: 0, z: 0}
    m_Extent: {x: 0, y: 0, z: 0}
  m_ClipBindingConstant:
    genericBindings:
    - serializedVersion: 2
      path: 0
      attribute: 0
      script: {fileID: 0}
      typeID: 212
      customType: 23
      isPPtrCurve: 1
    pptrCurveMapping:
    - {fileID: 21300000, guid: b32382519e28fff40832b51800e88600, type: 3}
    - {fileID: 21300000, guid: 3bca53d5e0297b54fbf28763b27d85d9, type: 3}
    - {fileID: 21300000, guid: aaf775fa1821f1247a357cbeeaa68755, type: 3}
    - {fileID: 21300000, guid: b89d30f4037f9564b80ac469ade58a15, type: 3}
    - {fileID: 21300000, guid: 517d1317ae34d6f44887799cf7fb340c, type: 3}
    - {fileID: 21300000, guid: b247d0aa6876c994294c2b11a0c4dfe0, type: 3}
    - {fileID: 21300000, guid: 535a878f34fdac54e9dbd9c5fb6006ea, type: 3}
    - {fileID: 21300000, guid: ad528d903a4d4624bb165bd22cb9d5b0, type: 3}
    - {fileID: 21300000, guid: a72fc30d58d5fed4fbe1a585723b4769, type: 3}
    - {fileID: 21300000, guid: 4fd9bb09cda5abe4aa91d832e28fa9b0, type: 3}
    - {fileID: 21300000, guid: 555b00b4d876ec84aafe1144ba19af64, type: 3}
  m_AnimationClipSettings:
    serializedVersion: 2
    m_AdditiveReferencePoseClip: {fileID: 0}
    m_AdditiveReferencePoseTime: 0
    m_StartTime: 0
    m_StopTime: 0.9166667
    m_OrientationOffsetY: 0
    m_Level: 0
    m_CycleOffset: 0
    m_HasAdditiveReferencePose: 0
    m_LoopTime: 1
    m_LoopBlend: 0
    m_LoopBlendOrientation: 0
    m_LoopBlendPositionY: 0
    m_LoopBlendPositionXZ: 0
    m_KeepOriginalOrientation: 0
    m_KeepOriginalPositionY: 1
    m_KeepOriginalPositionXZ: 0
    m_HeightFromFeet: 0
    m_Mirror: 0
  m_EditorCurves: []
  m_EulerEditorCurves: []
  m_HasGenericRootTransform: 0
  m_HasMotionFloatCurves: 0
  m_Events: []
