%YAML 1.1
%TAG !u! tag:unity3d.com,2011:
--- !u!74 &7400000
AnimationClip:
  m_ObjectHideFlags: 0
  m_CorrespondingSourceObject: {fileID: 0}
  m_PrefabInstance: {fileID: 0}
  m_PrefabAsset: {fileID: 0}
  m_Name: GuerreroAtaque
  serializedVersion: 6
  m_Legacy: 0
  m_Compressed: 0
  m_UseHighQualityCurve: 1
  m_RotationCurves: []
  m_CompressedRotationCurves: []
  m_EulerCurves: []
  m_PositionCurves: []
  m_ScaleCurves: []
  m_FloatCurves: []
  m_PPtrCurves:
  - curve:
    - time: 0
      value: {fileID: 21300000, guid: b34722b1152da164a88a37e7a4190f78, type: 3}
    - time: 0.083333336
      value: {fileID: 21300000, guid: 17b65e6759c6fa24ebe46f0c96505dbb, type: 3}
    - time: 0.16666667
      value: {fileID: 21300000, guid: b3497fd0b1b817840990693cc6dd931e, type: 3}
    - time: 0.25
      value: {fileID: 21300000, guid: 12e0359b2d04fe445af22e324049973d, type: 3}
    - time: 0.33333334
      value: {fileID: 21300000, guid: b85927c92ab09da4eaf7ffd36a2af756, type: 3}
    - time: 0.41666666
      value: {fileID: 21300000, guid: c3f032f3597c2e449a73e006a73bd576, type: 3}
    - time: 0.5
      value: {fileID: 21300000, guid: e8210a76160ece241a9483143c859328, type: 3}
    - time: 0.5833333
      value: {fileID: 21300000, guid: 8579df33fd222484c8d1aa6f7079492d, type: 3}
    - time: 0.6666667
      value: {fileID: 21300000, guid: ba7ced21b30c8b84783cee4026c45a70, type: 3}
    - time: 0.75
      value: {fileID: 21300000, guid: 59d22e8baa4163d468b02531545c42fe, type: 3}
    - time: 0.8333333
      value: {fileID: 21300000, guid: c85a638b24e04584eabe6cb6a3bfb1ff, type: 3}
    - time: 0.9166667
      value: {fileID: 21300000, guid: 135837098f1076c43a1bfc318313422b, type: 3}
    - time: 1
      value: {fileID: 21300000, guid: b20c57b437be87246976ab8749cbe3d5, type: 3}
    - time: 1.0833334
      value: {fileID: 21300000, guid: 99ef5b14d2bb2874a8bd25a63f227008, type: 3}
    - time: 1.1666666
      value: {fileID: 21300000, guid: f3434961e7f079f4eb80436fed427f0f, type: 3}
    - time: 1.25
      value: {fileID: 21300000, guid: f00e699cb7c9b384988e58f36dc2d3ef, type: 3}
    - time: 1.3333334
      value: {fileID: 21300000, guid: 896ce9ed7fd8ff946a94ab8d5c8c1c3a, type: 3}
    - time: 1.4166666
      value: {fileID: 21300000, guid: ebd6ca4b8b78f2d49904bb7006afa7eb, type: 3}
    attribute: m_Sprite
    path: 
    classID: 212
    script: {fileID: 0}
  m_SampleRate: 12
  m_WrapMode: 0
  m_Bounds:
    m_Center: {x: 0, y: 0, z: 0}
    m_Extent: {x: 0, y: 0, z: 0}
  m_ClipBindingConstant:
    genericBindings:
    - serializedVersion: 2
      path: 0
      attribute: 0
      script: {fileID: 0}
      typeID: 212
      customType: 23
      isPPtrCurve: 1
    pptrCurveMapping:
    - {fileID: 21300000, guid: b34722b1152da164a88a37e7a4190f78, type: 3}
    - {fileID: 21300000, guid: 17b65e6759c6fa24ebe46f0c96505dbb, type: 3}
    - {fileID: 21300000, guid: b3497fd0b1b817840990693cc6dd931e, type: 3}
    - {fileID: 21300000, guid: 12e0359b2d04fe445af22e324049973d, type: 3}
    - {fileID: 21300000, guid: b85927c92ab09da4eaf7ffd36a2af756, type: 3}
    - {fileID: 21300000, guid: c3f032f3597c2e449a73e006a73bd576, type: 3}
    - {fileID: 21300000, guid: e8210a76160ece241a9483143c859328, type: 3}
    - {fileID: 21300000, guid: 8579df33fd222484c8d1aa6f7079492d, type: 3}
    - {fileID: 21300000, guid: ba7ced21b30c8b84783cee4026c45a70, type: 3}
    - {fileID: 21300000, guid: 59d22e8baa4163d468b02531545c42fe, type: 3}
    - {fileID: 21300000, guid: c85a638b24e04584eabe6cb6a3bfb1ff, type: 3}
    - {fileID: 21300000, guid: 135837098f1076c43a1bfc318313422b, type: 3}
    - {fileID: 21300000, guid: b20c57b437be87246976ab8749cbe3d5, type: 3}
    - {fileID: 21300000, guid: 99ef5b14d2bb2874a8bd25a63f227008, type: 3}
    - {fileID: 21300000, guid: f3434961e7f079f4eb80436fed427f0f, type: 3}
    - {fileID: 21300000, guid: f00e699cb7c9b384988e58f36dc2d3ef, type: 3}
    - {fileID: 21300000, guid: 896ce9ed7fd8ff946a94ab8d5c8c1c3a, type: 3}
    - {fileID: 21300000, guid: ebd6ca4b8b78f2d49904bb7006afa7eb, type: 3}
  m_AnimationClipSettings:
    serializedVersion: 2
    m_AdditiveReferencePoseClip: {fileID: 0}
    m_AdditiveReferencePoseTime: 0
    m_StartTime: 0
    m_StopTime: 1.5
    m_OrientationOffsetY: 0
    m_Level: 0
    m_CycleOffset: 0
    m_HasAdditiveReferencePose: 0
    m_LoopTime: 0
    m_LoopBlend: 0
    m_LoopBlendOrientation: 0
    m_LoopBlendPositionY: 0
    m_LoopBlendPositionXZ: 0
    m_KeepOriginalOrientation: 0
    m_KeepOriginalPositionY: 1
    m_KeepOriginalPositionXZ: 0
    m_HeightFromFeet: 0
    m_Mirror: 0
  m_EditorCurves: []
  m_EulerEditorCurves: []
  m_HasGenericRootTransform: 0
  m_HasMotionFloatCurves: 0
  m_Events: []
