%YAML 1.1
%TAG !u! tag:unity3d.com,2011:
--- !u!74 &7400000
AnimationClip:
  m_ObjectHideFlags: 0
  m_CorrespondingSourceObject: {fileID: 0}
  m_PrefabInstance: {fileID: 0}
  m_PrefabAsset: {fileID: 0}
  m_Name: Sombra
  serializedVersion: 6
  m_Legacy: 0
  m_Compressed: 0
  m_UseHighQualityCurve: 1
  m_RotationCurves: []
  m_CompressedRotationCurves: []
  m_EulerCurves: []
  m_PositionCurves: []
  m_ScaleCurves: []
  m_FloatCurves: []
  m_PPtrCurves:
  - curve:
    - time: 0
      value: {fileID: 21300000, guid: 55ef32d21f879294680c3d1f4554c057, type: 3}
    - time: 0.083333336
      value: {fileID: 21300000, guid: 29afd6cc0bbc0674988e6f01748a3239, type: 3}
    - time: 0.16666667
      value: {fileID: 21300000, guid: 04268ee943f4e874fa63c223d1d2a5f2, type: 3}
    - time: 0.25
      value: {fileID: 21300000, guid: 7127f1455f1cff64e880745dd51067e6, type: 3}
    - time: 0.33333334
      value: {fileID: 21300000, guid: 5dab3b5cc7043e34986a991f47013a18, type: 3}
    - time: 0.41666666
      value: {fileID: 21300000, guid: d55c313b6f9bedb4893f1d307bfba3c3, type: 3}
    - time: 0.5
      value: {fileID: 21300000, guid: 0d4fe1fb12aae1c4d82b3bcbaace1c08, type: 3}
    - time: 0.5833333
      value: {fileID: 21300000, guid: fc009b5ba36eef344b9ef26a0c56052f, type: 3}
    - time: 0.6666667
      value: {fileID: 21300000, guid: b58cb53d6d93de8439fa579405c58a91, type: 3}
    - time: 0.75
      value: {fileID: 21300000, guid: 35607811b1b6bb54d9e18d3c50a63be0, type: 3}
    - time: 0.8333333
      value: {fileID: 21300000, guid: d01ddc9a2b66015459224f3b881c9387, type: 3}
    - time: 0.9166667
      value: {fileID: 21300000, guid: 2bfb29df79fbe9645ae8d1da3eb22500, type: 3}
    - time: 1
      value: {fileID: 21300000, guid: f152394f157682a4f95edd92c4935b7b, type: 3}
    - time: 1.0833334
      value: {fileID: 21300000, guid: b59470f0d015372479ce26984b86275c, type: 3}
    - time: 1.1666666
      value: {fileID: 21300000, guid: 7a7f319cd1623554aa7ac10142699de5, type: 3}
    attribute: m_Sprite
    path: 
    classID: 212
    script: {fileID: 0}
  m_SampleRate: 12
  m_WrapMode: 0
  m_Bounds:
    m_Center: {x: 0, y: 0, z: 0}
    m_Extent: {x: 0, y: 0, z: 0}
  m_ClipBindingConstant:
    genericBindings:
    - serializedVersion: 2
      path: 0
      attribute: 0
      script: {fileID: 0}
      typeID: 212
      customType: 23
      isPPtrCurve: 1
    pptrCurveMapping:
    - {fileID: 21300000, guid: 55ef32d21f879294680c3d1f4554c057, type: 3}
    - {fileID: 21300000, guid: 29afd6cc0bbc0674988e6f01748a3239, type: 3}
    - {fileID: 21300000, guid: 04268ee943f4e874fa63c223d1d2a5f2, type: 3}
    - {fileID: 21300000, guid: 7127f1455f1cff64e880745dd51067e6, type: 3}
    - {fileID: 21300000, guid: 5dab3b5cc7043e34986a991f47013a18, type: 3}
    - {fileID: 21300000, guid: d55c313b6f9bedb4893f1d307bfba3c3, type: 3}
    - {fileID: 21300000, guid: 0d4fe1fb12aae1c4d82b3bcbaace1c08, type: 3}
    - {fileID: 21300000, guid: fc009b5ba36eef344b9ef26a0c56052f, type: 3}
    - {fileID: 21300000, guid: b58cb53d6d93de8439fa579405c58a91, type: 3}
    - {fileID: 21300000, guid: 35607811b1b6bb54d9e18d3c50a63be0, type: 3}
    - {fileID: 21300000, guid: d01ddc9a2b66015459224f3b881c9387, type: 3}
    - {fileID: 21300000, guid: 2bfb29df79fbe9645ae8d1da3eb22500, type: 3}
    - {fileID: 21300000, guid: f152394f157682a4f95edd92c4935b7b, type: 3}
    - {fileID: 21300000, guid: b59470f0d015372479ce26984b86275c, type: 3}
    - {fileID: 21300000, guid: 7a7f319cd1623554aa7ac10142699de5, type: 3}
  m_AnimationClipSettings:
    serializedVersion: 2
    m_AdditiveReferencePoseClip: {fileID: 0}
    m_AdditiveReferencePoseTime: 0
    m_StartTime: 0
    m_StopTime: 1.25
    m_OrientationOffsetY: 0
    m_Level: 0
    m_CycleOffset: 0
    m_HasAdditiveReferencePose: 0
    m_LoopTime: 1
    m_LoopBlend: 0
    m_LoopBlendOrientation: 0
    m_LoopBlendPositionY: 0
    m_LoopBlendPositionXZ: 0
    m_KeepOriginalOrientation: 0
    m_KeepOriginalPositionY: 1
    m_KeepOriginalPositionXZ: 0
    m_HeightFromFeet: 0
    m_Mirror: 0
  m_EditorCurves: []
  m_EulerEditorCurves: []
  m_HasGenericRootTransform: 0
  m_HasMotionFloatCurves: 0
  m_Events: []
