%YAML 1.1
%TAG !u! tag:unity3d.com,2011:
--- !u!1045 &1
EditorBuildSettings:
  m_ObjectHideFlags: 0
  serializedVersion: 2
  m_Scenes:
  - enabled: 1
    path: Assets/Scenes/InitialScreen.unity
    guid: 36ccdc1c146a78043b360e3c13d26250
  - enabled: 1
    path: Assets/Scenes/DialogScene.unity
    guid: c8caadae783eac54f9940a5923feae04
  - enabled: 1
    path: Assets/Scenes/BattleScene.unity
    guid: b7841c393992dfc439a697e50c9584d9
  - enabled: 1
    path: Assets/Scenes/LevelUpScene.unity
    guid: 297777e175b25f84ca234677ae77f2fe
  - enabled: 1
    path: Assets/Scenes/GameOverScene.unity
    guid: 886aa34aed5414f428b92075b85e0099
  m_configObjects: {}
